[
    {
        "1": "What is Sherlock Holmes's brother's name?",
        "2": "Where does Sherlock Holmes keep his tobacco?",
        "3": "_____ Adler outwitted Sherlock Holmes in \"A scandal in Bohemia\""
    },
    {
        "1": {
            "a": "Mycroft",
            "b": "John",
            "c": "Moriarty",
            "d": "Lestrade"
        },
        "2": {
            "a": "In an ivory chest",
            "b": "In a cigarette case",
            "c": "In the toe of a Persian slipper",
            "d": "In a secret drawer"
        },
        "3": {
            "a": "Irina",
            "b": "Elaine",
            "c": "Irene",
            "d": "Ellie"
        }
    },
    {
        "1": "Mycroft",
        "2": "In the toe of a Persian slipper",
        "3": "Irene"
    }
]